{:20:COLGATE PALMOLIV
:25:006502040009681
:28:
:60:CYY04DDPKR32861

:61:YY04DDC32961
40130205031458161991:Tran Ref No:1991000201030039830

:61:YY04DDC32961
40130205031458161991:Tran Ref No:1991000201030039830

:61:YY04DDC32961
40130205031458161991:Tran Ref No:1991000201030039830

:61:YY04DDC32961
40130205031458161991:Tran Ref No:1991000201030039830

:61:YY04DDC32961
40130205031458161991:Tran Ref No:1991000201030039830

:61:YY04DDC32961
40130205031458161991:Tran Ref No:1991000201030039830

:61:YY04DDC32961
40130205031458161991:Tran Ref No:1991000201030039830

:61:YY04DDC32961
40130205031458161991:Tran Ref No:1991000201030039830

:61:YY04DDC32961
40130205031458161991:Tran Ref No:1991000201030039830

:61:YY04DDC32961
40130205031458161991:Tran Ref No:1991000201030039830

:61:YY04DDC32961
40130205031458161991:Tran Ref No:1991000201030039830
}
