******************************9/18/2017 5:24:39 PM
Unable to Upload File by User [ID:  ; Email:  ; UserName: ] due to [The request failed. Unable to connect to the remote server]
******************************
